{
  "images" : [
    {
      "filename" : "96697587_271174927611385_4954590306054963200_n.png",
      "idiom" : "universal",
      "scale" : "1x"
    },
    {
      "filename" : "96697587_271174927611385_4954590306054963200_n@2x.png",
      "idiom" : "universal",
      "scale" : "2x"
    },
    {
      "filename" : "96697587_271174927611385_4954590306054963200_n@3x.png",
      "idiom" : "universal",
      "scale" : "3x"
    }
  ],
  "info" : {
    "author" : "xcode",
    "version" : 1
  }
}
